[
    {
        "id": 52,
        "name": "Ashkāsham",
        "state_id": 3901,
        "state_code": "BDS",
        "state_name": "Badakhshan",
        "country_id": 1,
        "country_code": "AF",
        "country_name": "Afghanistan",
        "latitude": "36.68333000",
        "longitude": "71.53333000",
        "wikiDataId": "Q4805192"
    },
    {
        "id": 68,
        "name": "Fayzabad",
        "state_id": 3901,
        "state_code": "BDS",
        "state_name": "Badakhshan",
        "country_id": 1,
        "country_code": "AF",
        "country_name": "Afghanistan",
        "latitude": "37.11664000",
        "longitude": "70.58002000",
        "wikiDataId": "Q156558"
    }
   
]
